…
This dataset has 2595176 rows and 7 columns,the main variables includes
id, date, prcp, snow,snwd,tmax amd tmin. The prcp has 145838 missing
values, snow column has 381221 missing values

``` r
ny_noaa  |>
  janitor::clean_names() |>
  separate(date, into = c("year", "month","day"), sep = "-") 
```

    ## # A tibble: 2,595,176 × 9
    ##    id          year  month day    prcp  snow  snwd tmax  tmin 
    ##    <chr>       <chr> <chr> <chr> <int> <int> <int> <chr> <chr>
    ##  1 US1NYAB0001 2007  11    01       NA    NA    NA <NA>  <NA> 
    ##  2 US1NYAB0001 2007  11    02       NA    NA    NA <NA>  <NA> 
    ##  3 US1NYAB0001 2007  11    03       NA    NA    NA <NA>  <NA> 
    ##  4 US1NYAB0001 2007  11    04       NA    NA    NA <NA>  <NA> 
    ##  5 US1NYAB0001 2007  11    05       NA    NA    NA <NA>  <NA> 
    ##  6 US1NYAB0001 2007  11    06       NA    NA    NA <NA>  <NA> 
    ##  7 US1NYAB0001 2007  11    07       NA    NA    NA <NA>  <NA> 
    ##  8 US1NYAB0001 2007  11    08       NA    NA    NA <NA>  <NA> 
    ##  9 US1NYAB0001 2007  11    09       NA    NA    NA <NA>  <NA> 
    ## 10 US1NYAB0001 2007  11    10       NA    NA    NA <NA>  <NA> 
    ## # ℹ 2,595,166 more rows

``` r
ny_noaa |>
  count(snow) |>
  arrange(desc(n))
```

    ## # A tibble: 282 × 2
    ##     snow       n
    ##    <int>   <int>
    ##  1     0 2008508
    ##  2    NA  381221
    ##  3    25   31022
    ##  4    13   23095
    ##  5    51   18274
    ##  6    76   10173
    ##  7     8    9962
    ##  8     5    9748
    ##  9    38    9197
    ## 10     3    8790
    ## # ℹ 272 more rows
…
